/*********************************************************************
Initial conditions from MADX model of PSB extraction to BT lines
*********************************************************************/

betx0              =           8.228599e+00 ;
bety0              =           1.997057e+01 ;
alfx0              =          -6.425167e-02 ;
alfy0              =           5.854193e-01 ;
dx0                =           1.878552e+00 ;
dy0                =           1.756987e-01 ;
dpx0               =          -1.107076e-02 ;
dpy0               =           2.161180e-02 ;
x0                 =           0.000000e+00 ;
px0                =           0.000000e+00 ;
