/*********************************************************************
Initial conditions from MADX model of PSB extraction to BT lines
*********************************************************************/

betx0              =           5.640368e+00 ;
bety0              =           4.242831e+00 ;
alfx0              =          -5.996186e-02 ;
alfy0              =          -8.278500e-02 ;
dx0                =          -1.527622e+00 ;
dy0                =           0.000000e+00 ;
dpx0               =           4.416323e-02 ;
dpy0               =           0.000000e+00 ;
x0                 =           0.000000e+00 ;
px0                =           0.000000e+00 ;
