/*********************************************************************
Initial conditions from MADX model of PSB extraction to BT lines
*********************************************************************/

betx0              =           9.563375e+00 ;
bety0              =           5.210192e+00 ;
alfx0              =           1.196475e+00 ;
alfy0              =           8.124477e-01 ;
dx0                =          -3.636778e+00 ;
dy0                =          -1.448874e-01 ;
dpx0               =           1.101484e-01 ;
dpy0               =           7.323551e-02 ;
x0                 =           0.000000e+00 ;
px0                =           0.000000e+00 ;
