/*********************************************************************************
Initial conditions from MADX stitched model of PS extraction
*********************************************************************************/

betx0              = 19.50481000 ;
bety0              = 8.11992000 ;
alfx0              = -1.58357000 ;
alfy0              = 0.92655000 ;
dx0                = 3.10541000 ;
dy0                = 0.00000000 ;
dpx0               = 0.36167000 ;
dpy0               = 0.00000000 ;
