/*********************************************************************************
Initial conditions from MADX stitched model of SPS for LHC Q26 beam
*********************************************************************************/

betx0              = 17.70852678 ;
bety0              = 124.06111577 ;
alfx0              = 0.47633732 ;
alfy0              = -3.42587677 ;
dx0                = -0.40741674 ;
dy0                = 0.00000000 ;
dpx0               = 0.01202900 ;
dpy0               = 0.00000000 ;
