/*******
beta_Q26: beta0,   betx = 17.06248574,alfx =0.4588913839,
 bety=124.8219205, alfy=-3.444554843,
 dx=  -0.2527900995,dpx=  0.00334144588;

! Used for `set_ini_conditions` macro
***********/

betx0 = 17.06248574;
alfx0 = 0.4588913839;
bety0 = 124.8219205;
alfy0 = -3.444554843;
dx    = -0.2527900995;
dpx   =  0.00334144588;

