/*********************************************************************
Initial conditions from MADX model of PSB extraction to BT lines
*********************************************************************/

betx0              =           3.311706e+01 ;
bety0              =           4.682041e+01 ;
alfx0              =          -2.878389e+00 ;
alfy0              =          -3.718146e+00 ;
dx0                =          -2.122578e+00 ;
dy0                =          -6.910971e-01 ;
dpx0               =           1.080819e-01 ;
dpy0               =          -7.562694e-02 ;
x0                 =           0.000000e+00 ;
px0                =           0.000000e+00 ;
