/*********************************************************************
Initial conditions from MADX model of PSB extraction to BT lines
*********************************************************************/

betx0              =           3.308994e+01 ;
bety0              =           4.690794e+01 ;
alfx0              =          -2.875165e+00 ;
alfy0              =          -3.725925e+00 ;
dx0                =          -2.092138e+00 ;
dy0                =          -6.900037e-01 ;
dpx0               =           1.147827e-01 ;
dpy0               =          -7.554940e-02 ;
x0                 =           1.005088e-02 ;
px0                =           5.938233e-04 ;
