/*********************************************************************
Initial conditions from MADX model of PSB extraction to BT lines
*********************************************************************/

betx0              =           5.642786e+00 ;
bety0              =           4.240754e+00 ;
alfx0              =          -5.987709e-02 ;
alfy0              =          -8.252016e-02 ;
dx0                =          -1.528292e+00 ;
dy0                =           0.000000e+00 ;
dpx0               =           4.533538e-02 ;
dpy0               =           0.000000e+00 ;
x0                 =           5.609984e-03 ;
px0                =          -4.474403e-05 ;
