/*********************************************************************
Initial conditions from MADX model of ELENA extraction to LNE00
*********************************************************************/

betx0              =   2.64609073048495e+00 ;
bety0              =   2.04317775333762e+00 ;
alfx0              =   1.69232263992677e+00 ;
alfy0              =  -1.11828415239948e+00 ;
dx0                =  -1.36148596438354e+02 ;
dy0                =   7.72964725415018e-02 ;
dpx0               =   8.70273631349504e+01 ;
dpy0               =  -3.67460673516236e-01 ;
x0                 =   0.00000000000000e+00 ;
px0                =   0.00000000000000e+00 ;
