/*********************************************************************
Initial conditions from MADX model of PSB extraction to BT lines
*********************************************************************/

betx0              =           1.092377e+01 ;
bety0              =           2.168022e+01 ;
alfx0              =          -2.164721e-01 ;
alfy0              =           2.733054e-02 ;
dx0                =           2.586699e+00 ;
dy0                =           5.871449e-02 ;
dpx0               =           5.593492e-03 ;
dpy0               =          -5.428210e-04 ;
x0                 =          -7.128149e-03 ;
px0                =           1.652195e-04 ;
