/*********************************************************************************
Initial conditions from MADX stitched model of SPS => sps_t66 for hiradmat optics
*********************************************************************************/

betx0              =         3.09454594e+01 ;
bety0              =         1.04998255e+02 ;
alfx0              =        -5.91152702e-01 ;
alfy0              =         1.89147008e+00 ;
dx0                =        -2.98038247e-01 ;
dy0                =         0.00000000e+00 ;
dpx0               =         4.52464499e-03 ;
dpy0               =         0.00000000e+00 ;
