/*********************************************************************
Initial conditions from MADX model of PSB extraction to BT lines
*********************************************************************/

betx0              =           2.661250e+01 ;
bety0              =           4.661422e+01 ;
alfx0              =          -2.472051e+00 ;
alfy0              =          -3.699783e+00 ;
dx0                =          -2.054633e+00 ;
dy0                =           7.182570e-02 ;
dpx0               =           1.029671e-01 ;
dpy0               =           4.805391e-03 ;
x0                 =           0.000000e+00 ;
px0                =           0.000000e+00 ;
