/*********************************************************************************
Initial conditions from MADX stitched model of SPS for LHC Q20 beam
*********************************************************************************/

betx0              = 26.01267211 ;
bety0              = 122.19866180 ;
alfx0              = 0.59347573 ;
alfy0              = -2.74484573 ;
dx0                = -0.49110451 ;
dy0                = 0.00000000 ;
dpx0               = 0.01497218 ;
dpy0               = 0.00000000 ;
