/*********************************************************************
Initial conditions from MADX model of PSB extraction to BT lines
*********************************************************************/

betx0              =           6.204666e+00 ;
bety0              =           2.146168e+01 ;
alfx0              =           4.273699e-01 ;
alfy0              =           6.834767e-01 ;
dx0                =           1.636918e+00 ;
dy0                =          -3.067119e-02 ;
dpx0               =          -9.020606e-02 ;
dpy0               =           3.180374e-03 ;
x0                 =           0.000000e+00 ;
px0                =           0.000000e+00 ;
