/*********************************************************************
Initial conditions for injection from MADX model of ELENA
*********************************************************************/

betx0              =           4.220636e+00 ;
bety0              =           5.386551e+00 ;
alfx0              =          -2.628364e+00 ;
alfy0              =          -5.198068e-01 ;
dx0                =          -6.193188e+01 ;
dy0                =           0.000000e+00 ;
dpx0               =           1.601947e+01 ;
dpy0               =           0.000000e+00 ;
x0                 =           0.000000e+00 ;
px0                =           0.000000e+00 ;
