/*********************************************************************************
Initial conditions from MADX stitched model of PS extraction to TT10 LHC Q26 beam (which are the same for Q20)
*********************************************************************************/

betx0              =   25.03306 ;
bety0              =    8.40046 ;
alfx0              =   -2.32689 ;
alfy0              =    0.98094 ;
dx0                =    3.08882 ;
dy0                =    0.00000 ;
dpx0               =    0.26096 ;
dpy0               =    0.00000 ;
