/*********************************************************************
Initial conditions from MADX model of PSB extraction to BT lines
*********************************************************************/

betx0              =           3.420767e-01 ;
bety0              =           7.351021e+00 ;
alfx0              =           5.222498e-01 ;
alfy0              =           4.352710e-01 ;
dx0                =          -9.558001e-01 ;
dy0                =          -3.328544e-01 ;
dpx0               =           1.135841e-01 ;
dpy0               =           2.344752e-02 ;
x0                 =           6.358610e-04 ;
px0                =           2.640373e-03 ;
