/**********
!values at "EXTRPT" 
twiss_start_Q26: beta0,  betx= 17.02748544,   alfx= 0.4583574683,
bety=123.9323528,    alfy=-3.422196857,
dx  = -0.3408152943, dpx = 0.01307653962;
***********/


betx0  = 17.02748544;
alfx0  = 0.4583574683;
bety0  = 123.9323528;
alfy0  = -3.422196857;
dx0    = -0.3408152943;
dpx0   = 0.01307653962;
