/*********************************************************************
Initial conditions from MADX model of PSB extraction to BT lines
*********************************************************************/

betx0              =           5.947363e+00 ;
bety0              =           4.619816e+00 ;
alfx0              =           2.360288e-01 ;
alfy0              =           3.140944e-01 ;
dx0                =          -1.488156e+00 ;
dy0                =          -0.000000e+00 ;
dpx0               =           1.612068e-03 ;
dpy0               =          -0.000000e+00 ;
x0                 =           1.105557e-03 ;
px0                =           8.419634e-05 ;
