/*********************************************************************************
Initial conditions from MADX stitched model of SPS for LHC Q20 beam
*********************************************************************************/

betx0              = 26.31542073 ;
bety0              = 122.51628055 ;
alfx0              = 0.61612635 ;
alfy0              = -2.75185516 ;
dx0                = -0.48454201 ;
dy0                = 0.00000000 ;
dpx0               = 0.01159297 ;
dpy0               = 0.00000000 ;
