/*********************************************************************
Initial conditions from MADX model of ELENA extraction to LNE50
*********************************************************************/

betx0              =        4.636875192 ;
bety0              =        4.505223008 ;
alfx0              =        1.279814981 ;
alfy0              =        1.052882125 ;
dx0                =        94.10184428 ;
dy0                =                  0 ;
dpx0               =    9.237055565e-14 ;
dpy0               =                  0 ;
x0                 =                  0 ;
px0                =                  0 ;
