
test               =      0.01459875728 ;

test               =      0.01459875728 ;

test               =      0.01459875728 ;

test               =      0.01459875728 ;

test               =      0.01459875728 ;

test               =      0.01459875728 ;

test               =      0.01459875728 ;

test               =      0.01459875728 ;

test               =      0.01459875728 ;

test               =      0.01459875728 ;

test               =      0.01459875728 ;

test               =      0.01459875728 ;

test               =      0.01459875728 ;

test               =      0.01459875728 ;

test               =      0.01459875728 ;

test               =      0.01459875728 ;

test               =      0.01459875728 ;

test               =      0.01459875728 ;

test               =      0.01459875728 ;

test               =      0.01459875728 ;

test               =      0.01459875728 ;

test               =      0.01459875728 ;

test               =      0.01459875728 ;

test               =      0.01459875728 ;

test               =      0.01459875728 ;

test               =      0.01459875728 ;

test               =      0.01459875728 ;

test               =      0.01459875728 ;

test               =      0.01459875728 ;

test               =      0.01459875728 ;

test               =      0.01459875728 ;

test               =      0.01459875728 ;

test               =      0.01459875728 ;

test               =      0.01459875728 ;

test               =      0.01459875728 ;

test               =      0.01459875728 ;

test               =      0.01459875728 ;

test               =      0.01459875728 ;

test               =      0.01459875728 ;

test               =      0.01459875728 ;

test               =      0.01459875728 ;

test               =      0.01459875728 ;

test               =      0.01459875728 ;

test               =      0.01459875728 ;

test               =      0.01459875728 ;

test               =      0.01459875728 ;

test               =      0.01459875728 ;

test               =      0.01459875728 ;

test               =      0.01459875728 ;

test               =      0.01459875728 ;

test               =      0.01459875728 ;

test               =      0.01459875728 ;

test               =      0.01459875728 ;

test               =      0.01459875728 ;

test               =      0.01459875728 ;

test               =      0.01459875728 ;

test               =      0.01459875728 ;

test               =      0.01459875728 ;

test               =      0.01459875728 ;

test               =      0.01459875728 ;

test               =      0.01459875728 ;

test               =      0.01459875728 ;

test               =      0.01459875728 ;

test               =      0.01459875728 ;

test               =      0.01459875728 ;

test               =      0.01459875728 ;

test               =      0.01459875728 ;

test               =      0.01459875728 ;

test               =      0.01459875728 ;

test               =      0.01459875728 ;

test               =      0.01459875728 ;

test               =      0.01459875728 ;

test               =      0.01459875728 ;

test               =      0.01459875728 ;

test               =      0.01459875728 ;

test               =      0.01459875728 ;

test               =      0.01459875728 ;

test               =      0.01459875728 ;

test               =      0.01459875728 ;

test               =      0.01459875728 ;

test               =      0.01459875728 ;

test               =      0.01459875728 ;

test               =      0.01459875728 ;

test               =      0.01459875728 ;

test               =      0.01459875728 ;

test               =      0.01459875728 ;

test               =      0.01459875728 ;

test               =      0.01459875728 ;

test               =      0.01459875728 ;

test               =      0.01459875728 ;

test               =      0.01459875728 ;

test               =      0.01459875728 ;

test               =      0.01459875728 ;

test               =      0.01459875728 ;

test               =      0.01459875728 ;

test               =      0.01459875728 ;

test               =      0.01459875728 ;

test               =      0.01459875728 ;

test               =      0.01459875728 ;

test               =      0.01459875728 ;

test               =      0.01459875728 ;

test               =      0.01459875728 ;

test               =      0.01459875728 ;

test               =      0.01459875728 ;

test               =      0.01459875728 ;

test               =      0.01459875728 ;

test               =      0.01459875728 ;

test               =      0.01459875728 ;

test               =      0.01459875728 ;

test               =      0.01459875728 ;

test               =      0.01459875728 ;

test               =      0.01459875728 ;

test               =      0.01459875728 ;

test               =      0.01459875728 ;

test               =      0.01459875728 ;

test               =      0.01459875728 ;

test               =      0.01459875728 ;

test               =      0.01459875728 ;

test               =      0.01459875728 ;

test               =      0.01459875728 ;

test               =      0.01459875728 ;

test               =      0.01459875728 ;

test               =      0.01459875728 ;

test               =      0.01459875728 ;

test               =      0.01459875728 ;

test               =      0.01459875728 ;

test               =      0.01459875728 ;

test               =      0.01459875728 ;

test               =      0.01459875728 ;

test               =      0.01459875728 ;

test               =      0.01459875728 ;

test               =      0.01459875728 ;

test               =      0.01459875728 ;

test               =      0.01459875728 ;

test               =      0.01459875728 ;

test               =      0.01459875728 ;

test               =      0.01459875728 ;

test               =      0.01459875728 ;

test               =      0.01459875728 ;

test               =      0.01459875728 ;

test               =      0.01459875728 ;

test               =      0.01459875728 ;

test               =      0.01459875728 ;

test               =      0.01459875728 ;

test               =      0.01459875728 ;

test               =      0.01459875728 ;

test               =      0.01459875728 ;

test               =      0.01459875728 ;

test               =      0.01459875728 ;

test               =      0.01459875728 ;

test               =      0.01459875728 ;

test               =      0.01459875728 ;

test               =      0.01459875728 ;

test               =      0.01459875728 ;

test               =      0.01459875728 ;

test               =      0.01459875728 ;

test               =      0.01459875728 ;

test               =      0.01459875728 ;

test               =      0.01459875728 ;

test               =      0.01459875728 ;

test               =      0.01459875728 ;

test               =      0.01459875728 ;

test               =      0.01459875728 ;

test               =      0.01459875728 ;

test               =      0.01459875728 ;

test               =      0.01459875728 ;

test               =      0.01459875728 ;

test               =      0.01459875728 ;

test               =      0.01459875728 ;

test               =      0.01459875728 ;

test               =      0.01459875728 ;

test               =      0.01459875728 ;

test               =      0.01459875728 ;

test               =      0.01459875728 ;

test               =      0.01459875728 ;

test               =      0.01459875728 ;

test               =      0.01459875728 ;

test               =      0.01459875728 ;

test               =      0.01459875728 ;

test               =      0.01459875728 ;

test               =      0.01459875728 ;

test               =      0.01459875728 ;

test               =      0.01459875728 ;

test               =      0.01459875728 ;

test               =      0.01459875728 ;

test               =      0.01459875728 ;

test               =      0.01459875728 ;

test               =      0.01459875728 ;

test               =      0.01459875728 ;

test               =      0.01459875728 ;

test               =      0.01459875728 ;

test               =      0.01459875728 ;

test               =      0.01459875728 ;

test               =      0.01459875728 ;

test               =      0.01459875728 ;

test               =      0.01459875728 ;

test               =      0.01459875728 ;

test               =      0.01459875728 ;

test               =      0.01459875728 ;

test               =      0.01459875728 ;

test               =      0.01459875728 ;

test               =      0.01459875728 ;

test               =      0.01459875728 ;

test               =      0.01459875728 ;

test               =      0.01459875728 ;

test               =      0.01459875728 ;

test               =      0.01459875728 ;

test               =      0.01459875728 ;

test               =      0.01459875728 ;

test               =      0.01459875728 ;

test               =      0.01459875728 ;

test               =      0.01459875728 ;

test               =      0.01459875728 ;

test               =      0.01459875728 ;

test               =      0.01459875728 ;

test               =      0.01459875728 ;

test               =      0.01459875728 ;

test               =      0.01459875728 ;

test               =      0.01459875728 ;

test               =      0.01459875728 ;

test               =      0.01459875728 ;

test               =      0.01459875728 ;

test               =      0.01459875728 ;

test               =      0.01459875728 ;

test               =      0.01459875728 ;

test               =      0.01459875728 ;

test               =      0.01459875728 ;

test               =      0.01459875728 ;

test               =      0.01459875728 ;

test               =      0.01459875728 ;

test               =      0.01459875728 ;

test               =      0.01459875728 ;

test               =      0.01459875728 ;

test               =      0.01459875728 ;

test               =      0.01459875728 ;

test               =      0.01459875728 ;

test               =      0.01459875728 ;

test               =      0.01459875728 ;

test               =      0.01459875728 ;

test               =      0.01459875728 ;

test               =      0.01459875728 ;

test               =      0.01459875728 ;

test               =      0.01459875728 ;

test               =      0.01459875728 ;

test               =      0.01459875728 ;

test               =      0.01459875728 ;

test               =      0.01459875728 ;

test               =      0.01459875728 ;

test               =      0.01459875728 ;

test               =      0.01459875728 ;

test               =      0.01459875728 ;

test               =      0.01459875728 ;

test               =      0.01459875728 ;

test               =      0.01459875728 ;

test               =      0.01459875728 ;

test               =      0.01459875728 ;

test               =      0.01459875728 ;

test               =      0.01459875728 ;

test               =      0.01459875728 ;

test               =      0.01459875728 ;

test               =      0.01459875728 ;

test               =      0.01459875728 ;

test               =      0.01459875728 ;

test               =      0.01459875728 ;

test               =      0.01459875728 ;

test               =      0.01459875728 ;

test               =      0.01459875728 ;

test               =      0.01459875728 ;

test               =      0.01459875728 ;

test               =      0.01459875728 ;

test               =      0.01459875728 ;

test               =      0.01459875728 ;

test               =      0.01459875728 ;

test               =      0.01459875728 ;

test               =      0.01459875728 ;

test               =      0.01459875728 ;

test               =      0.01459875728 ;

test               =      0.01459875728 ;

test               =      0.01459875728 ;

test               =      0.01459875728 ;

test               =      0.01459875728 ;

test               =      0.01459875728 ;

test               =      0.01459875728 ;

test               =      0.01459875728 ;

test               =      0.01459875728 ;

test               =      0.01459875728 ;

test               =      0.01459875728 ;

test               =      0.01459875728 ;

test               =      0.01459875728 ;

test               =      0.01459875728 ;

test               =      0.01459875728 ;

test               =      0.01459875728 ;

test               =      0.01459875728 ;

test               =      0.01459875728 ;

test               =      0.01459875728 ;

test               =      0.01459875728 ;

test               =      0.01459875728 ;

test               =      0.01459875728 ;

test               =      0.01459875728 ;

test               =      0.01459875728 ;

test               =      0.01459875728 ;

test               =      0.01459875728 ;

test               =      0.01459875728 ;

test               =      0.01459875728 ;

test               =      0.01459875728 ;

test               =      0.01459875728 ;

test               =      0.01459875728 ;

test               =      0.01459875728 ;

test               =      0.01459875728 ;

test               =      0.01459875728 ;

test               =      0.01459875728 ;

test               =      0.01459875728 ;

test               =      0.01459875728 ;

test               =      0.01459875728 ;

test               =      0.01459875728 ;

test               =      0.01459875728 ;

test               =      0.01459875728 ;

test               =      0.01459875728 ;

test               =      0.01459875728 ;

test               =      0.01459875728 ;

test               =      0.01459875728 ;

test               =      0.01459875728 ;

test               =      0.01459875728 ;

test               =      0.01459875728 ;

test               =      0.01459875728 ;

test               =      0.01459875728 ;

test               =      0.01459875728 ;

test               =      0.01459875728 ;

test               =      0.01459875728 ;

test               =      0.01459875728 ;

test               =      0.01459875728 ;

test               =      0.01459875728 ;

test               =      0.01459875728 ;

test               =      0.01459875728 ;

test               =      0.01459875728 ;

test               =      0.01459875728 ;

test               =      0.01459875728 ;

test               =      0.01459875728 ;

test               =      0.01459875728 ;

test               =      0.01459875728 ;

test               =      0.01459875728 ;

test               =      0.01459875728 ;

test               =      0.01459875728 ;

test               =      0.01459875728 ;

test               =      0.01459875728 ;

test               =      0.01459875728 ;

test               =      0.01459875728 ;

test               =      0.01459875728 ;

test               =      0.01459875728 ;

test               =      0.01459875728 ;

test               =      0.01459875728 ;

test               =      0.01459875728 ;

test               =      0.01459875728 ;

test               =      0.01459875728 ;

test               =      0.01459875728 ;

test               =      0.01459875728 ;

test               =      0.01459875728 ;

test               =      0.01459875728 ;

test               =      0.01459875728 ;

test               =      0.01459875728 ;

test               =      0.01459875728 ;

test               =      0.01459875728 ;

test               =      0.01459875728 ;

test               =      0.01459875728 ;

test               =      0.01459875728 ;

test               =      0.01459875728 ;

test               =      0.01459875728 ;

test               =      0.01459875728 ;

test               =      0.01459875728 ;

test               =      0.01459875728 ;

test               =      0.01459875728 ;

test               =      0.01459875728 ;

test               =      0.01459875728 ;

test               =      0.01459875728 ;

test               =      0.01459875728 ;

test               =      0.01459875728 ;

test               =      0.01459875728 ;

test               =      0.01459875728 ;

test               =      0.01459875728 ;

test               =      0.01459875728 ;

test               =      0.01459875728 ;

test               =      0.01459875728 ;

test               =      0.01459875728 ;

test               =      0.01459875728 ;

test               =      0.01459875728 ;

test               =      0.01459875728 ;

test               =      0.01459875728 ;

test               =      0.01459875728 ;

test               =      0.01459875728 ;

test               =      0.01459875728 ;

test               =      0.01459875728 ;

test               =      0.01459875728 ;

test               =      0.01459875728 ;

test               =      0.01459875728 ;

test               =      0.01459875728 ;

test               =      0.01459875728 ;

test               =      0.01459875728 ;

test               =      0.01459875728 ;

test               =      0.01459875728 ;

test               =      0.01459875728 ;

test               =      0.01459875728 ;

test               =      0.01459875728 ;

test               =      0.01459875728 ;

test               =      0.01459875728 ;

test               =      0.01459875728 ;

test               =      0.01459875728 ;

test               =      0.01459875728 ;

test               =      0.01459875728 ;

test               =      0.01459875728 ;

test               =      0.01459875728 ;

test               =      0.01459875728 ;

test               =      0.01459875728 ;

test               =      0.01459875728 ;

test               =      0.01459875728 ;

test               =      0.01459875728 ;

test               =      0.01459875728 ;

test               =      0.01459875728 ;

test               =      0.01459875728 ;

test               =      0.01459875728 ;

test               =      0.01459875728 ;

test               =      0.01459875728 ;

test               =      0.01459875728 ;

test               =      0.01459875728 ;

test               =      0.01459875728 ;

test               =      0.01459875728 ;

test               =      0.01459875728 ;

test               =      0.01459875728 ;

test               =      0.01459875728 ;

test               =      0.01459875728 ;

test               =      0.01459875728 ;

test               =      0.01459875728 ;

test               =      0.01459875728 ;

test               =      0.01459875728 ;

test               =      0.01459875728 ;

test               =      0.01459875728 ;

test               =      0.01459875728 ;

test               =      0.01459875728 ;

test               =      0.01459875728 ;

test               =      0.01459875728 ;

test               =      0.01459875728 ;

test               =      0.01459875728 ;

test               =      0.01459875728 ;

test               =      0.01459875728 ;

test               =      0.01459875728 ;

test               =      0.01459875728 ;

test               =      0.01459875728 ;

test               =      0.01459875728 ;

test               =      0.01459875728 ;

test               =      0.01459875728 ;

test               =      0.01459875728 ;

test               =      0.01459875728 ;

test               =      0.01459875728 ;

test               =      0.01459875728 ;

test               =      0.01459875728 ;

test               =      0.01459875728 ;

test               =      0.01459875728 ;

test               =      0.01459875728 ;

test               =      0.01459875728 ;

test               =      0.01459875728 ;

test               =      0.01459875728 ;

test               =      0.01459875728 ;

test               =      0.01459875728 ;

test               =      0.01459875728 ;

test               =      0.01459875728 ;

test               =      0.01459875728 ;

test               =      0.01459875728 ;

test               =      0.01459875728 ;

test               =      0.01459875728 ;

test               =      0.01459875728 ;

test               =      0.01459875728 ;

test               =      0.01459875728 ;

test               =      0.01459875728 ;

test               =      0.01459875728 ;

test               =      0.01459875728 ;

test               =      0.01459875728 ;

test               =      0.01459875728 ;

test               =      0.01459875728 ;

test               =      0.01459875728 ;

test               =      0.01459875728 ;

test               =      0.01459875728 ;

test               =      0.01459875728 ;

test               =      0.01459875728 ;

test               =      0.01459875728 ;

test               =      0.01459875728 ;

test               =      0.01459875728 ;

test               =      0.01459875728 ;

test               =      0.01459875728 ;

test               =      0.01459875728 ;

test               =      0.01459875728 ;

test               =      0.01459875728 ;

test               =      0.01459875728 ;

test               =      0.01459875728 ;

test               =      0.01459875728 ;

test               =      0.01459875728 ;

test               =      0.01459875728 ;

test               =      0.01459875728 ;

test               =      0.01459875728 ;

test               =      0.01459875728 ;

test               =      0.01459875728 ;

test               =      0.01459875728 ;

test               =      0.01459875728 ;

test               =      0.01459875728 ;

test               =      0.01459875728 ;
