! Start of TT23 as obtained from particle tracking simulation in SPS with COSE
alfx0 =  2.399910e-01;
alfy0  =-6.819748e-01;
betx0  = 1.848403e+01;
bety0  = 9.433379e+03;
dpx0   = 6.006248e-02;
dpy0   =-1.592622e-04;
dx0    =-2.245723e-01;
dy0    =-1.166228e-01;
epsx  =  4.673764e-08;
epsy  =  8.147893e-09;
