/*********************************************************************
Initial conditions from MADX model of PSB extraction to BT lines
*********************************************************************/

betx0              =           1.049800e+01 ;
bety0              =           5.203573e+00 ;
alfx0              =           1.343553e+00 ;
alfy0              =           7.997963e-01 ;
dx0                =          -3.524962e+00 ;
dy0                =           3.206634e-03 ;
dpx0               =           1.029671e-01 ;
dpy0               =           4.805391e-03 ;
x0                 =           0.000000e+00 ;
px0                =           0.000000e+00 ;
