/*********************************************************************
Initial conditions from MADX model of PSB extraction to BT lines
*********************************************************************/

betx0              =           4.281413e-01 ;
bety0              =           7.326365e+00 ;
alfx0              =           6.155877e-01 ;
alfy0              =           4.405073e-01 ;
dx0                =          -9.421361e-01 ;
dy0                =          -1.361796e-02 ;
dpx0               =           1.191832e-01 ;
dpy0               =           6.648929e-03 ;
x0                 =           5.722543e-04 ;
px0                =           2.552964e-03 ;
