/*********************************************************************
Initial conditions from MADX model of PSB extraction to BT lines
*********************************************************************/

betx0              =           1.168498e+01 ;
bety0              =           2.165793e+01 ;
alfx0              =          -1.592653e-01 ;
alfy0              =           1.919463e-02 ;
dx0                =           2.624056e+00 ;
dy0                =           5.532640e-01 ;
dpx0               =          -5.246310e-03 ;
dpy0               =           1.155982e-02 ;
x0                 =          -7.311070e-03 ;
px0                =           2.104181e-04 ;
