/*********************************************************************
Initial conditions from MADX model of PSB extraction to BT lines
*********************************************************************/

betx0              =           1.130237e+01 ;
bety0              =           2.223691e+01 ;
alfx0              =          -1.024019e-01 ;
alfy0              =          -6.946339e-02 ;
dx0                =           2.581606e+00 ;
dy0                =           5.627258e-01 ;
dpx0               =          -7.788725e-04 ;
dpy0               =           1.366212e-02 ;
x0                 =           0.000000e+00 ;
px0                =           0.000000e+00 ;
