/*********************************************************************************
Initial conditions from MADX stitched model of SPS => sps_ti8 for q20 optics
*********************************************************************************/

betx0              =         3.37792880e+01 ;
bety0              =         1.03369630e+02 ;
alfx0              =        -6.34584608e-01 ;
alfy0              =         1.84546920e+00 ;
dx0                =        -4.32310663e-01 ;
dy0                =         0.00000000e+00 ;
dpx0               =        -1.94242298e-03 ;
dpy0               =         0.00000000e+00 ;
